…
## `summarise()` ungrouping output (override with `.groups` argument)

## # A tibble: 0 x 2
## # … with 2 variables: marble_name <chr>, teams <int>

# No marbles switched teams

# Track Length affects player performance ---------------------------------

marbles %>% 
  count(marble_name)

## # A tibble: 32 x 2
##    marble_name     n
##    <chr>       <int>
##  1 Anarchy         8
##  2 Billy           8
##  3 Bolt            8
##  4 Clementin       8
##  5 Clutter         8
##  6 Hazy            8
##  7 Hive            8
##  8 Limelime        8
##  9 Mallard         8
## 10 Mary            8
## # … with 22 more rows
…
