…
## # A tibble: 0 x 14
## # … with 14 variables: country <chr>, year <dbl>, parent_company <chr>,
## #   empty <dbl>, hdpe <dbl>, ldpe <dbl>, o <dbl>, pet <dbl>, pp <dbl>,
## #   ps <dbl>, pvc <dbl>, grand_total <dbl>, num_events <dbl>, volunteers <dbl>

So volunteers arent an issue at all. Let’s leave them at it.

Now let’s focus on the year and country distribution

plastics_ %>% 
  count(country,year,sort=TRUE)

## # A tibble: 107 x 3
##    country                   year     n
##    <chr>                    <dbl> <int>
##  1 EMPTY                     2019  1346
##  2 Philippines               2019   711
##  3 Vietnam                   2019   678
##  4 Indonesia                 2019   636
##  5 China                     2019   622
##  6 United States of America  2019   583
##  7 Ukraine                   2019   569
##  8 Hong Kong                 2019   558
##  9 United States of America  2020   376
## 10 NIGERIA                   2019   354
## # … with 97 more rows

Wait what, there’s an EMPTY country section?

plastics_ %>% 
  filter(country == "EMPTY")

## # A tibble: 1,346 x 14
##    country  year parent_company empty  hdpe  ldpe     o   pet    pp    ps   pvc
##    <chr>   <dbl> <chr>          <dbl> <dbl> <dbl> <dbl> <dbl> <dbl> <dbl> <dbl>
##  1 EMPTY    2019 Grand Total        0  1535  6443 30181 11087  5420  2101   188
##  2 EMPTY    2019 Unbranded          0   631  3176 17432  4265  2417  1545    20
##  3 EMPTY    2019 The Coca-Cola…     0   130     4   157  1154   210     1    51
##  4 EMPTY    2019 Philip Morris      0    13    37  1579     1     0     4     0
##  5 EMPTY    2019 Sahakari Jal       0     0     0     0   563   975     0     0
##  6 EMPTY    2019 PepsiCo            0     0     8   386   462   175     5     0
##  7 EMPTY    2019 max                0     0     0  1011     0     0     0     0
##  8 EMPTY    2019 Arrow              0     0     0     0   327   609     0     0
##  9 EMPTY    2019 Current            0     0     0   910     0     0     0     0
## 10 EMPTY    2019 Nestlé             0    22    19   365   326    95     1    43
## # … with 1,336 more rows, and 3 more variables: grand_total <dbl>,
## #   num_events <dbl>, volunteers <dbl>
…
